day,count
2019-03-13,1200
2019-03-15,1181
2019-03-14,1177
2019-03-12,1024
2019-03-10,972
2019-01-22,830
2019-03-11,771
2019-01-23,719
2019-03-17,668
2019-03-18,627
2019-01-24,589
2019-03-16,502
2019-03-04,447
2019-01-27,438
2019-01-29,429
2019-03-05,425
2019-03-03,423
2019-01-26,414
2019-01-30,407
2019-03-09,403
2019-01-25,397
2019-03-06,370
2019-03-07,370
2019-02-04,356
2019-03-02,333
2019-02-03,322
2019-01-31,312
2019-03-08,311
2019-02-10,290
2019-02-24,288
2019-02-15,285
2019-02-28,277
2019-02-16,271
2019-02-13,266
2019-02-07,259
2019-02-12,258
2019-01-28,257
2019-02-22,256
2019-02-21,255
2019-02-17,255
2019-02-18,250
2019-02-01,242
2019-02-25,239
2019-02-19,237
2019-02-06,236
2019-02-14,232
2019-02-26,221
2019-03-01,221
2019-02-20,221
2019-02-05,220
2019-02-08,217
2019-02-09,202
2019-02-23,198
2019-02-11,197
2019-02-02,196
2019-02-27,196
