day,count
2019-03-15,157
2019-03-10,119
2019-03-14,114
2019-03-17,97
2019-03-13,90
2019-03-18,89
2019-01-22,88
2019-01-23,88
2019-03-11,81
2019-03-12,70
2019-03-09,63
2019-01-27,61
2019-01-30,59
2019-01-24,59
2019-01-25,55
2019-03-03,54
2019-03-04,49
2019-03-06,46
2019-02-03,45
2019-02-19,42
2019-03-16,42
2019-01-26,41
2019-02-09,40
2019-03-02,40
2019-03-07,39
2019-03-05,38
2019-03-01,37
2019-02-04,37
2019-01-28,37
2019-02-10,37
2019-03-08,35
2019-02-06,35
2019-02-18,34
2019-01-29,33
2019-02-02,32
2019-02-08,32
2019-02-21,31
2019-02-17,31
2019-02-22,31
2019-02-20,28
2019-02-24,27
2019-02-27,27
2019-02-26,26
2019-02-23,25
2019-02-07,24
2019-02-28,24
2019-02-15,24
2019-02-05,23
2019-01-31,21
2019-02-14,21
2019-02-01,19
2019-02-13,19
2019-02-25,19
2019-02-16,19
2019-02-12,16
2019-02-11,14
