day,count
2019-01-22,1771
2019-01-23,1748
2019-01-24,963
2019-01-25,802
2019-01-27,666
2019-03-15,662
2019-01-26,630
2019-03-10,605
2019-03-14,570
2019-01-28,540
2019-03-11,497
2019-02-03,462
2019-01-30,460
2019-03-13,432
2019-03-18,396
2019-01-31,384
2019-02-04,375
2019-03-12,370
2019-03-17,363
2019-01-29,320
2019-03-07,303
2019-03-04,296
2019-03-03,284
2019-03-09,257
2019-02-01,247
2019-03-01,246
2019-03-02,245
2019-03-06,244
2019-02-21,243
2019-03-16,241
2019-02-05,237
2019-02-10,234
2019-02-02,221
2019-02-22,211
2019-02-09,209
2019-03-08,207
2019-02-27,202
2019-02-07,201
2019-02-19,198
2019-02-23,197
2019-02-25,192
2019-02-28,189
2019-02-24,180
2019-02-06,176
2019-02-16,175
2019-02-15,170
2019-02-26,170
2019-02-20,169
2019-02-18,168
2019-02-17,167
2019-02-13,163
2019-03-05,153
2019-02-11,143
2019-02-14,130
2019-02-08,117
2019-02-12,81
