day,count
2019-03-15,1561
2019-03-14,1453
2019-03-10,1357
2019-01-23,1324
2019-01-22,1245
2019-03-13,1169
2019-03-11,1096
2019-03-12,1033
2019-01-24,1027
2019-03-17,920
2019-03-18,789
2019-01-27,783
2019-01-25,715
2019-03-03,679
2019-01-26,667
2019-03-16,655
2019-03-09,608
2019-02-03,591
2019-01-31,553
2019-01-29,551
2019-03-04,540
2019-01-28,539
2019-01-30,533
2019-03-06,515
2019-03-07,484
2019-02-10,481
2019-02-04,453
2019-03-02,442
2019-03-08,433
2019-02-01,423
2019-02-24,413
2019-03-05,412
2019-02-19,372
2019-02-06,351
2019-02-07,350
2019-02-21,346
2019-02-17,345
2019-02-20,342
2019-02-22,339
2019-03-01,334
2019-02-05,329
2019-02-25,322
2019-02-02,319
2019-02-09,312
2019-02-18,306
2019-02-28,302
2019-02-27,301
2019-02-15,295
2019-02-26,295
2019-02-08,288
2019-02-13,264
2019-02-23,263
2019-02-11,263
2019-02-16,247
2019-02-14,247
2019-02-12,193
