day,freq
2019-01-22,0.005401992423179458
2019-01-23,0.005184143874821313
2019-01-24,0.0038057976169304643
2019-01-25,0.004354057634259159
2019-01-26,0.0036145200433742404
2019-01-27,0.003722209181449314
2019-01-28,0.004146573701508124
2019-01-29,0.002924243808827561
2019-01-30,0.003629620862429479
2019-01-31,0.0031187057371190956
2019-02-01,0.002725818021298902
2019-02-02,0.0028185180461675805
2019-02-03,0.0032325776658270362
2019-02-04,0.003366187321592072
2019-02-05,0.0028957175148145884
2019-02-06,0.0022852691034214116
2019-02-07,0.002656340857429825
2019-02-08,0.0019663204598164767
2019-02-09,0.00298277412265053
2019-02-10,0.002279812938425565
2019-02-11,0.0021266154097824307
2019-02-12,0.0018878478534470704
2019-02-13,0.0027753183954232785
2019-02-14,0.0024650624798528546
2019-02-15,0.002616552000123132
2019-02-16,0.0027145250356766146
2019-02-17,0.0020904265972361306
2019-02-18,0.0023418877287870975
2019-02-19,0.0025105239133742458
2019-02-20,0.0022706508303326706
2019-02-21,0.0028425042111173498
2019-02-22,0.0029002240457438183
2019-02-23,0.002943725531215445
2019-02-24,0.0018661552019076254
2019-02-25,0.002595506529321113
2019-02-26,0.0025518245545565078
2019-02-27,0.002722812314660053
2019-02-28,0.0022062943593574896
2019-03-01,0.003035088585105858
2019-03-02,0.0024873854026010943
2019-03-03,0.001788458147560392
2019-03-04,0.002463505168367262
2019-03-05,0.0018656033946665691
2019-03-06,0.0023967153212973696
2019-03-07,0.0028293694147967616
2019-03-08,0.002134020618556701
2019-03-09,0.001950989918620187
2019-03-10,0.0018422038238670446
2019-03-11,0.001955199571980456
2019-03-12,0.0019409530604108526
2019-03-13,0.0019167713052236455
2019-03-14,0.0021232687909287997
2019-03-15,0.002123496391339214
2019-03-16,0.0017900115867969934
2019-03-17,0.0020001653029175963
2019-03-18,0.0025528787575990045
