day,freq
2019-01-22,5.1854246862818065e-05
2019-01-23,4.745211784733467e-05
2019-01-24,3.9520224474875016e-05
2019-01-25,2.1715998175856154e-05
2019-01-26,2.868666701090667e-05
2019-01-27,5.58890267484882e-05
2019-01-28,1.5357680375956016e-05
2019-01-29,0.00027414785707758385
2019-01-30,0.00018148104312147394
2019-01-31,7.30946657137288e-05
2019-02-01,4.4142801964354684e-05
2019-02-02,0.00010202780257620202
2019-02-03,8.396305625524769e-05
2019-02-04,3.59059980969821e-05
2019-02-05,4.887286944834749e-05
2019-02-06,5.193793416866844e-05
2019-02-07,3.9646878469101864e-05
2019-02-08,5.041847332862761e-05
2019-02-09,5.708658607943598e-05
2019-02-10,4.871395167575994e-05
2019-02-11,4.461430929613491e-05
2019-02-12,6.992029086841001e-05
2019-02-13,0.0001362119457876456
2019-02-14,3.792403815158238e-05
2019-02-15,4.617444706099645e-05
2019-02-16,1.55115716324378e-05
2019-02-17,3.755257360304426e-05
2019-02-18,8.363884745668205e-05
2019-02-19,5.071765481564132e-05
2019-02-20,5.374321491911646e-05
2019-02-21,9.358038555118848e-05
2019-02-22,6.87256882877682e-05
2019-02-23,4.4828307581961086e-05
2019-02-24,2.0735057798973616e-05
2019-02-25,1.3518263173547462e-05
2019-02-26,6.004293069544724e-05
2019-02-27,4.043780665336712e-05
2019-02-28,0.00012840866641763168
2019-03-01,6.168879238020036e-05
2019-03-02,5.076296740002233e-05
2019-03-03,3.778432706113504e-05
2019-03-04,6.658122076668276e-05
2019-03-05,0.00010974137615685701
2019-03-06,4.9113018879044455e-05
2019-03-07,7.47028228329178e-05
2019-03-08,5.154639175257732e-05
2019-03-09,5.3139803230900033e-05
2019-03-10,5.480936996629224e-05
2019-03-11,6.687805376995524e-05
2019-03-12,0.0004878611746438089
2019-03-13,0.00037714250218520804
2019-03-14,0.00030917773622296556
2019-03-15,0.00016680032076984763
2019-03-16,0.00020054071719302415
2019-03-17,0.00014877262583684603
2019-03-18,0.0001611665882322604
