day,freq
2019-01-22,0.0037975610202475585
2019-01-23,0.003926662751866945
2019-01-24,0.004058727053569664
2019-01-25,0.0038817346739342872
2019-01-26,0.00382680137925495
2019-01-27,0.004376110794406626
2019-01-28,0.004138894861320146
2019-01-29,0.005035182308324957
2019-01-30,0.004205625912336765
2019-01-31,0.0044912611266324474
2019-02-01,0.004668101307730508
2019-02-02,0.004068358627726055
2019-02-03,0.004135180520570949
2019-02-04,0.004066354284483223
2019-02-05,0.0040197935121265805
2019-02-06,0.004557553723300656
2019-02-07,0.004625469154728551
2019-02-08,0.004840173439548251
2019-02-09,0.004452753714196006
2019-02-10,0.004686282151208106
2019-02-11,0.0039111877816278276
2019-02-12,0.004498205379201044
2019-02-13,0.004494994210992304
2019-02-14,0.004683618711720424
2019-02-15,0.004540487294331317
2019-02-16,0.0038313581932121364
2019-02-17,0.00431854596435009
2019-02-18,0.004265581220290785
2019-02-19,0.004716741897854643
2019-02-20,0.004595044875584458
2019-02-21,0.004047351675088902
2019-02-22,0.004659601665910684
2019-02-23,0.003929948298018589
2019-02-24,0.004281789435488051
2019-02-25,0.004352880741882283
2019-02-26,0.004428166138789234
2019-02-27,0.004057259934221168
2019-02-28,0.0035254015689204334
2019-03-01,0.004120811330997384
2019-03-02,0.004487446318161974
2019-03-03,0.0042759263457517824
2019-03-04,0.004494232401751086
2019-03-05,0.005023716330736121
2019-03-06,0.005058640944541579
2019-03-07,0.004519520781391527
2019-03-08,0.004463917525773196
2019-03-09,0.004615571480626746
2019-03-10,0.004132017502458809
2019-03-11,0.004311667466580643
2019-03-12,0.005418931111903813
2019-03-13,0.005186818647700096
2019-03-14,0.005412472900385168
2019-03-15,0.005007217321571772
2019-03-16,0.004864969250423364
2019-03-17,0.005069289472959198
2019-03-18,0.005086417524610138
