day,freq
2019-01-22,0.0023456421080886524
2019-01-23,0.0020523040968972246
2019-01-24,0.002134092121643251
2019-01-25,0.0019218658385632696
2019-01-26,0.0021228133588070937
2019-01-27,0.002263505583313772
2019-01-28,0.001981140768498326
2019-01-29,0.0025404368089189436
2019-01-30,0.0025170631632934863
2019-01-31,0.0023146644142680787
2019-02-01,0.0022733543011642663
2019-02-02,0.0023466394592526465
2019-02-03,0.0022530086761824797
2019-02-04,0.0021633363853431715
2019-02-05,0.0024925163418657217
2019-02-06,0.0020125949490359023
2019-02-07,0.0024581064650843155
2019-02-08,0.002403280561997916
2019-02-09,0.0020408454523398365
2019-02-10,0.002367498051441933
2019-02-11,0.002022515354758116
2019-02-12,0.0031231063254556473
2019-02-13,0.002264523598719608
2019-02-14,0.0025788345943076017
2019-02-15,0.0027089008942451248
2019-02-16,0.0022026431718061676
2019-02-17,0.0026537152012817947
2019-02-18,0.0022443090734209684
2019-02-19,0.0025612415681898868
2019-02-20,0.002203471811683775
2019-02-21,0.002011978289350552
2019-02-22,0.002556595604304977
2019-02-23,0.002525327993783808
2019-02-24,0.002052770722098388
2019-02-25,0.0023927325817179007
2019-02-26,0.002356685029796304
2019-02-27,0.002156683021512913
2019-02-28,0.002077885692939858
2019-03-01,0.0021467699748309726
2019-03-02,0.0025686061504411302
2019-03-03,0.00223557268445049
2019-03-04,0.0023053747690463906
2019-03-05,0.0022923754130543465
2019-03-06,0.002455650943952223
2019-03-07,0.0021570440093005012
2019-03-08,0.0017525773195876289
2019-03-09,0.002459613749544516
2019-03-10,0.002250229133616109
2019-03-11,0.0019512655688175174
2019-03-12,0.002827496485301215
2019-03-13,0.002781980574942652
2019-03-14,0.002406371296385973
2019-03-15,0.0025276663993584604
2019-03-16,0.002354496568525506
2019-03-17,0.00286525057167259
2019-03-18,0.0029848052140614627
